G04 #@! TF.GenerationSoftware,KiCad,Pcbnew,(5.99.0-9568-gb9d26a55f2)*
G04 #@! TF.CreationDate,2021-03-08T10:56:08+01:00*
G04 #@! TF.ProjectId,ESP-Hiro,4553502d-4869-4726-9f2e-6b696361645f,rev?*
G04 #@! TF.SameCoordinates,PX5f5e100PY7bfa480*
G04 #@! TF.FileFunction,Profile,NP*
%FSLAX46Y46*%
G04 Gerber Fmt 4.6, Leading zero omitted, Abs format (unit mm)*
G04 Created by KiCad (PCBNEW (5.99.0-9568-gb9d26a55f2)) date 2021-03-08 10:56:08*
%MOMM*%
%LPD*%
G01*
G04 APERTURE LIST*
G04 #@! TA.AperFunction,Profile*
%ADD10C,0.050000*%
G04 #@! TD*
G04 APERTURE END LIST*
D10*
X0Y3000000D02*
X0Y47000000D01*
X100000000Y3000000D02*
G75*
G02*
X97000000Y0I-3000000J0D01*
G01*
X0Y47000000D02*
G75*
G02*
X3000000Y50000000I3000000J0D01*
G01*
X54450000Y50000000D02*
G75*
G03*
X53450000Y49000000I0J-1000000D01*
G01*
X97000000Y50000000D02*
X54450000Y50000000D01*
X0Y3000000D02*
G75*
G03*
X3000000Y0I3000000J0D01*
G01*
X100000000Y47000000D02*
X100000000Y3000000D01*
X53450000Y44100000D02*
G75*
G02*
X52450000Y43100000I-1000000J0D01*
G01*
X36450000Y49000000D02*
G75*
G03*
X35450000Y50000000I-1000000J0D01*
G01*
X97000000Y50000000D02*
G75*
G02*
X100000000Y47000000I0J-3000000D01*
G01*
X36450000Y44100000D02*
X36450000Y49000000D01*
X53450000Y44100000D02*
X53450000Y49000000D01*
X3000000Y50000000D02*
X35450000Y50000000D01*
X37450000Y43100000D02*
G75*
G02*
X36450000Y44100000I0J1000000D01*
G01*
X37450000Y43100000D02*
X52450000Y43100000D01*
X97000000Y0D02*
X3000000Y0D01*
M02*
